<?xml version="1.0" encoding="utf-8"?>
<!-- Generator: Adobe Illustrator 19.2.0, SVG Export Plug-In . SVG Version: 6.00 Build 0)  -->
<svg version="1.1" id="Layer_1" xmlns="http://www.w3.org/2000/svg" xmlns:xlink="http://www.w3.org/1999/xlink" x="0px" y="0px"
	 viewBox="0 0 40 40" style="enable-background:new 0 0 40 40;" xml:space="preserve">
<style type="text/css">
	.st0{fill:#D52F2F;}
</style>
<path class="st0" d="M37.3,10c-1.8-3.1-4.2-5.5-7.3-7.3C27,0.9,23.6,0,20,0s-7,0.9-10,2.7C6.9,4.5,4.5,6.9,2.7,10S0,16.4,0,20
	s0.9,7,2.7,10s4.2,5.5,7.3,7.3S16.4,40,20,40c5.5,0,10.2-2,14.1-5.9C38,30.2,40,25.5,40,20C40,16.4,39.1,13,37.3,10z M32.4,32.4
	c-3.4,3.4-7.5,5.1-12.4,5.1s-8.9-1.7-12.4-5.1C4.2,28.9,2.5,24.8,2.5,20s1.7-8.9,5.1-12.4c3.4-3.4,7.5-5.1,12.4-5.1
	s8.9,1.7,12.4,5.1c3.4,3.4,5.1,7.5,5.1,12.4S35.8,28.9,32.4,32.4z"/>
<path class="st0" d="M28.1,14.2L22.4,20l5.5,5.5c0.3,0.3,0.5,0.7,0.5,1.2c0,0.5-0.2,0.9-0.5,1.2c-0.3,0.3-0.7,0.5-1.2,0.5
	s-0.9-0.2-1.2-0.5L20,22.4l-5.8,5.8c-0.3,0.3-0.7,0.5-1.2,0.5s-0.9-0.2-1.2-0.5c-0.3-0.3-0.5-0.7-0.5-1.2s0.2-0.9,0.5-1.2l5.7-5.8
	l-5.5-5.5c-0.3-0.3-0.5-0.7-0.5-1.2s0.2-0.9,0.5-1.2c0.4-0.3,0.8-0.5,1.2-0.5s0.8,0.2,1.2,0.5l5.5,5.5l5.7-5.7
	c0.4-0.3,0.8-0.5,1.2-0.5s0.8,0.2,1.2,0.5c0.3,0.3,0.5,0.7,0.5,1.2S28.5,13.9,28.1,14.2z"/>
</svg>
